lemma,sentimen
benci,-1
krisis,-1
marginal,-1
capek,-1
bohong,-1
bonyok,-1
resah,-1
miris,-1
haram,-1
panik,-1
dendam,-1
gelisah,-1
cuek,-1
remeh,-1
risau,-1
bingung,-1
demam,-1
gawat,-1
kalap,-1
nakal,-1
sebel,-1
mahal,-1
rapuh,-1
lumpuh,-1
labil,-1
geger,-1
bego,-1
pitam,-1
geblek,-1
suram,-1
kumat,-1
sukar,-1
abnormal,-1
penasaran,-1
jahat,-1
cabul,-1
takut,-1
rancu,-1
miskin,-1
iri,-1
paranoid,-1
tragis,-1
aneh,-1
jelek,-1
selingkuh,-1
bodoh,-1
sulit,-1
malas,-1
susah,-1
emosional,-1
kasar,-1
tega,-1
rendah,-1
palsu,-1
lepas,-1
rentan,-1
waspada,1
minim,-1
galau,-1
nekat,-1
salah,-1
sakit,-1
malu,-1
yakin,1
kaget,-1
taat,1
kekar,1
inovatif,1
cepat,1
gembira,1
mesra,1
sakti,1
aman,1
tulus,1
fasih,1
antusias,1
pesat,1
merdeka,1
romantis,1
rapi,1
halal,1
valid,1
suci,1
bersih,1
aktif,1
agung,1
mulia,1
tepat,1
plus,1
akur,1
senang,1
rajin,1
adil,1
murah,1
tenang,1
jaya,1
khawatir,-1
betul,1
sedap,1
produktif,1
giat,1
ayu,1
benar,1
santun,1
bangga,1
jelas,1
sepakat,1
parah,-1
waras,1
sabar,1
mantap,1
kuat,1
cinta,1
nyata,1
pintar,1
sayang,1
konsisten,1
istimewa,1
sehat,1
tinggi,1
pasti,1
gempita,1
kaya,1
hebat,1
baik,1
cantik,1
mampu,1
serius,1
suka,1
banyak,1
sukses,1
besar,1
manis,1
berani,1
kreatif,1
mandiri,1
ramah,1