nanti,0.0
dukung,2.0
buka,0.0
jauh,0.0
lengkap,4
putus,-1.0
libat,0.0
selenggara,1
manggung,3
pamer,2
inap,1
teliti,1
ada,0.0
ambil,0.0
turut,0.0
mulai,0.0
bohong,-1.0
terima,0.0
ingat,0.0
lanjut,0.0
arak,1
siap,1.0
futuristik,1
lalu,0.0
tetap,0.0
layan,0.0
jadi,6
iring,1
terus,0.0
resmi,0.0
lekat,2
mewah,2
umum,1
kasih,0.0
baik,3.0
sosial,0.0
giat,7
tunjuk,0.0
paksa,-1.0
mampu,2.0
lain,0.0
gemilang,1
sampai,0.0
unjung,1
internasional,0.0
ajak,0.0
tuju,0.0
kelola,0.0
spektakuler,1
bangun,0.0
keluar,0.0
tahun,0.0
diri,0.0
luas,0.0
mandiri,4
gelar,2
kunjung,1
tahu,0.0
lulus,2.0
telah,0.0
lagu,0.0
ungkap,2
bisa,5.0
mini,1
mumpuni,1.0
masuk,0.0
sakit,-7.0
sebut,0.0
hadir,0.0
kutip,1
capai,0.0
dua,0.0
harus,0.0
sehat,3.0
jelas,5.0
khas,2
sungguh,0.0
adalah,4
senang,1.0
jaga,1.0
khusus,0.0
pecah,-4.0
lebih,0.0
didik,14
kembang,5
gemerlap,1
beri,0.0
kota,0.0
main,0.0
sambut,3
salah,-2.0
agam,1
nyata,2.0
operasional,1
kreatif,2
gilang,1
panggung,1
tanggung,1.0
penting,1.0
acara,3
penuh,0.0
lama,0.0
gratis,1
suka,1.0
sedia,1
raya,2
rawat,1
riah,3
malang,16
akademik,3
terbit,2.0
kembali,0.0
pelihara,2
serta,3
pilih,0.0
kenal,0.0
tinggi,4.0
hubung,0.0
unjuk,2
mohon,0.0
maju,2.0
tunggu,0.0
