Snake 1040 5.22 (1.48) 4.33 (2.17) 4.67 (1.91)
Snake 1120 4.28 (1.97) 6.72 (2.58) 3.67 (2.30)
Rat 1280 4.06 (1.76) 4.28 (2.47) 5.17 (1.86)
Pit Bull 1300 3.33 (1.81) 6.72 (2.11) 3.06 (2.53)
3 Puppies 1710 8.33 (1.68) 5.00 (2.47) 5.83 (1.98)
2 Bunnies 1750 7.83 (1.62) 4.33 (2.83) 6.06 (2.04)
Dolphins 1920 7.67 (1.41) 4.94 (2.71) 5.50 (1.62)
Shark 1930 3.72 (2.56) 7.78 (2.16) 3.06 (3.00)
Baby 2070 7.94 (2.18) 5.22 (2.37) 7.28 (1.67)
Angry Man 2120 4.22 (1.55) 4.67 (2.22) 3.94 (2.16)
Ang. Woman 2130 4.33 (1.50) 4.67 (2.61) 4.89 (2.08)
Neut. Man 2190 4.78 (0.55) 2.94 (2.10) 5.17 (2.09)
Neut. Boy 2280 4.44 (1.42) 2.61 (1.61) 6.11 (1.84)
Girl Reading 2320 5.78 (1.06) 2.83 (1.89) 5.67 (1.14)
Boy/ice-cream 2650 6.83 (1.82) 3.28 (2.05) 6.00 (1.37)
Baby/sink 2660 7.44 (1.58) 4.00 (2.72) 6.39 (1.50)
Actor/Makeup 2780 5.50 (2.06) 5.56 (2.83) 4.50 (1.86)
Boy Screaming 2810 4.11 (1.88) 4.33 (1.78) 5.06 (2.31)
Grandfather 2890 7.44 (2.09) 4.06 (2.67) 5.61 (1.75)
Clown 2920 6.72 (1.99) 3.50 (2.38) 5.44 (1.58)
AIDS Patient 3230 2.50 (2.12) 3.39 (2.09) 3.28 (2.27)
Boy/Dentist 3280 5.17 (2.18) 3.22 (1.77) 4.83 (1.38)
Man/Subway 3500 2.39 (1.82) 6.17 (2.81) 3.44 (2.60)
Man/Arrested 3530 2.39 (1.69) 6.67 (2.50) 3.33 (2.28)
Flowers 5020 6.11 (1.28) 2.50 (2.20) 5.72 (1.78)
Flowers 5030 6.56 (2.09) 2.39 (2.23) 5.78 (2.21)
Space Shuttle 5450 7.00 (1.65) 6.28 (2.44) 5.33 (2.77)
Fireworks 5480 7.28 (1.56) 5.94 (2.60) 6.06 (2.01)
Fireworks 5910 7.72 (1.64) 6.44 (2.20) 5.33 (1.88)
Lightning 5950 5.94 (2.39) 6.89 (2.59) 3.61 (3.03)
Aimed Gun 6230 2.78 (2.65) 7.61 (2.15) 3.11 (3.09)
Knife 6300 3.33 (1.91) 6.83 (2.46) 3.56 (2.71)
Masked Man 6370 3.17 (1.82) 6.83 (2.41) 3.11 (2.25)
Rolling Pin 7000 5.17 (1.43) 2.44 (2.31) 5.72 (2.40)
Basket 7010 4.44 (0.92) 2.33 (2.25) 5.06 (1.86)
Iron 7030 4.28 (1.23) 2.67 (2.33) 5.28 (1.97)
Dustpan 7040 4.39 (1.24) 2.72 (2.02) 5.39 (2.28)
Fork 7080 5.39 (1.33) 2.33 (1.78) 5.22 (2.02)
Book 7090 5.22 (1.22) 2.94 (2.26) 5.44 (1.69)
Fire Hydrant 7100 5.17 (1.10) 2.50 (1.76) 5.61 (1.88)
Truck 7130 5.00 (1.03) 2.83 (2.04) 4.22 (2.29)
Umbrella 7150 5.22 (1.44) 2.89 (2.59) 5.00 (2.06)
Light bulb 7170 5.67 (1.19) 2.78 (2.07) 5.72 (1.57)
B-day Cake 7250 6.67 (1.65) 4.44 (3.00) 5.89 (2.08)
Ice cream 7330 7.00 (2.30) 5.00 (2.61) 5.28 (2.08)
Roach/Pizza 7380 3.78 (2.56) 4.72 (2.82) 6.00 (2.33)
Popsicles 7390 6.72 (2.16) 4.39 (2.85) 5.61 (1.94)
Candy 7400 6.67 (2.09) 3.50 (2.15) 5.06 (1.86)
M&M 7410 6.83 (1.65) 3.06 (1.83) 5.22 (2.07)
Snickers 7430 7.17 (1.65) 5.00 (2.40) 5.67 (2.30)
Skyscraper 7510 6.39 (1.46) 3.72 (2.22) 3.89 (2.35)
Motorcycle 8260 6.39 (1.94) 7.11 (1.91) 5.50 (2.53)
Roller Coaster 8490 8.33 (1.37) 7.83 (2.18) 4.78 (2.37)
Sports Car 8510 7.67 (2.25) 6.72 (2.47) 7.11 (2.30)
Circus Horse 8620 6.89 (1.45) 5.11 (2.52) 5.50 (1.76)
Plane Crash 9050 2.44 (1.76) 5.72 (2.40) 3.39 (2.66)
Soldier 9421 3.06 (1.47) 4.44 (2.33) 3.56 (1.85)
Soldiers 9450 3.11 (2.19) 6.11 (2.68) 3.39 (2.00)
Fire 9461 3.28 (2.70) 6.89 (1.71) 3.83 (3.09)
Skulls 9480 4.00 (1.81) 5.11 (2.22) 4.17 (2.01)