Description,Slide No,Valence Mean(SD),Arousal Mean(SD),Dominance1 Mean(SD),Number
Rat,1280,3.85(2.09),5.31(2.68),4.86(2.47),2
AIDS Patient,3230,2.06(1.65),4.76(2.58),2.86(2.37),2
Boy/Dentist,3280,3.98(2.18),4.87(2.54),4.37(2.42),2
Roach/Pizza,7380,3.52(1.90),5.21(2.71),4.87(2.44),2
Soldier,9421,3.23(2.29),5.11(2.26),3.82(2.32),2
Soldiers,9450,2.73(1.87),6.00(2.73),3.55(2.40),2
Skulls,9480,3.26(2.01),5.65(2.69),4.40(2.42,2
Snake,1040,5.15(2.52),5.95(2.60),4.69(2.38),3
Snake,1120,3.84(2.45),6.21(2.87),4.26(2.57),3
Pit Bull,1300,3.39(2.15),6.69(2.74),3.42(2.47),3
Angry Man,2120,4.03(2.02),4.76(2.90),4.21(2.37),3
Ang. Woman,2130,4.29(1.74),4.66(2.54),4.57(2.43),3
Actor/Makeup,2780,5.53(1.97),5.07(2.60),5.10(1.93),3
Boy Screaming,2810,4.47(1.78),4.32(2.57),4.77(2.46),3
Man/Subway,3500,3.32(2.51),6.13(2.88),3.67(2.55),3
Man/Arrested,3530,2.30(1.77),6.93(2.24),3.21(2.50),3
Aimed Gun,6230,2.61(2.14),7.33(2.34),3.08(2.69),3
Knife,6300,2.95(2.22),6.97(2.40),3.53(2.70),3
Masked Man,6370,3.23(1.93),6.31(2.62),3.34(2.47),3
Plane Crash,9050,2.56(1.86),6.08(2.62),3.48(2.64),3
Fire,9461,2.85(1.95),6.44(2.67),3.58(2.49),3
Neut. Man,2190,5.00(1.23),2.82(2.04),5.23(2.04),5
Neut. Boy,2280,5.16(1.34),3.34(2.06),5.53(2.04),5
Girl Reading,2320,5.61(2.17),2.82(2.24),5.76(2.21),5
Rolling Pin,7000,4.82(1.54),2.07(1.85),5.43(2.42),5
Basket,7010,5.20(1.34),1.92(1.80),5.26(2.20),5
Iron,7030,5.13(1.18),2.73(2.15),5.58(2.35),5
Dustpan,7040,4.52(1.61),2.52(2.25),5.47(2.25),5
Fork,7080,4.95(1.25),2.24(1.88),5.37(2.21),5
Book,7090,4.82(1.87),2.45(2.13),5.55(2.34),5
Fire Hydrant,7100,5.37(1.65),2.79(2.32),5.29(2.30),5
Truck,7130,5.13(1.32),3.03(2.23),5.05(2.25),5
Umbrella,7150,5.02(1.35),2.53(2.11),5.47(2.22),5
Light bulb,7170,5.05(1.65),2.55(2.05),5.58(2.27),5
Skyscraper,7510,5.42(1.98),3.92(2.49),4.66(2.37),5
Shark,1930,4.15(2.60),7.18(2.27),3.50(2.80),6
Lightning,5950,5.19(2.58),6.65(2.54),4.74(2.76),6
Flowers,5020,6.31(2.03),2.97(2.36),6.31(2.03),7
Flowers,5030,6.55(1.65),3.55(2.55),6.07(1.97),7
3 Puppies,1710,7.94(1.80),5.45(2.82),6.90(2.04),8
2 Bunnies,1750,7.58(1.80),4.94(2.58),6.65(1.93),8
Dolphins,1920,7.81(1.60),5.87(2.68),6.82(1.72),8
Baby,2070,7.85(1.62),5.53(2.63),6.97(2.09),8
Boy/ice-cream,2650,7.47(1.43),5.03(2.66),6.58(1.73),8
Baby/sink,2660,7.08(1.79),4.51(2.37),6.33(2.03),8
Grandfather,2890,6.56(2.29),4.31(2.35),5.84(2.27),8
Clown,2920,6.58(1.96),4.63(2.90),6.08(2.04),8
Space Shuttle,5450,7.02(2.05),5.84(2.82),5.48(2.64),8
Fireworks,5480,7.37(2.03),5.44(2.91),6.03(2.28),8
Fireworks,5910,7.23(1.90),5.95(2.66),5.84(2.49),8
B-day Cake,7250,7.44(1.42),5.23(2.35),6.84(1.95),8
Ice cream,7330,7.65(1.92),5.58(2.97),7.10(2.03),8
Popsicles,7390,7.24(1.70),5.21(2.86),6.61(2.19),8
Candy,7400,7.24(2.18),5.34(3.04),6.76(2.27),8
M&M,7410,6.94(1.97),5.07(2.74),6.68(1.81),8
Snickers,7430,7.02(2.12),5.13(2.92),6.66(2.27),8
Circus Horse,8620,6.92(1.91),5.13(2.89),6.15(2.08),8
Motorcycle,8260,6.56(2.18),6.40(2.68),5.71(2.57),9
Roller Coaster,8490,8.13(1.64),7.68(2.10),6.58(2.10),9
Sports Car,8510,7.76(1.87),6.19(2.94),7.07(2.16),9
